<svg width="580" height="400" xmlns="http://www.w3.org/2000/svg">
 <!-- Created with Method Draw - http://github.com/duopixel/Method-Draw/ -->
 <g>
  <title>Layer 1</title>
  <rect transform="rotate(16 613.0000000000003,237.50001525878918) " id="svg_1" height="552.761837" width="500.06269" y="-38.880917" x="280.968654" stroke-width="0" fill="#d6d6d6"/>
  <path id="svg_4" d="m414.5,191.453125l-87.5,133.546875" opacity="0.5" stroke-width="0" fill="#fff"/>
  <path id="svg_5" d="m319.5,298.453125" opacity="0.5" stroke-width="0" fill="#fff"/>
 </g>
</svg>
